%YAML 1.1
%TAG !u! tag:unity3d.com,2011:
--- !u!114 &11400000
MonoBehaviour:
  m_ObjectHideFlags: 0
  m_CorrespondingSourceObject: {fileID: 0}
  m_PrefabInstance: {fileID: 0}
  m_PrefabAsset: {fileID: 0}
  m_GameObject: {fileID: 0}
  m_Enabled: 1
  m_EditorHideFlags: 0
  m_Script: {fileID: 11500000, guid: f1b3b4b945939a54ea0b23d3396115fb, type: 3}
  m_Name: whirlyblendmodes_SkeletonData
  m_EditorClassIdentifier: 
  atlasAssets:
  - {fileID: 11400000, guid: db7ac54cc9ef711408d53c53b765b9a3, type: 2}
  scale: 0.01
  skeletonJSON: {fileID: 4900000, guid: 1a6f51aad0fef5a40aeedfeec5c0b8b2, type: 3}
  isUpgradingBlendModeMaterials: 0
  blendModeMaterials:
    requiresBlendModeMaterials: 1
    applyAdditiveMaterial: 1
    additiveMaterials:
    - pageName: whirlyblendmodes.png
      material: {fileID: 2100000, guid: 455aa2b8ff95f50459438d4ba1ca3856, type: 2}
    multiplyMaterials:
    - pageName: whirlyblendmodes.png
      material: {fileID: 2100000, guid: f888231ffdcc53d4393594910b26cb7a, type: 2}
    screenMaterials:
    - pageName: whirlyblendmodes.png
      material: {fileID: 2100000, guid: 5adfe6a432565ff46ac165bc6be92360, type: 2}
  skeletonDataModifiers: []
  fromAnimation: []
  toAnimation: []
  duration: []
  defaultMix: 0
  controller: {fileID: 0}
